clase1
…
clase1

Funciones avanzadas

Vamos a cargar el paquete tidyverse

ahora procedemos a cargar el archivo iris en forma de tbl

iris_tbl <- as_tibble(iris)

y vamos nosotros a observarlo de esta manera

iris_tbl

# A tibble: 150 × 5
   Sepal.Length Sepal.Width Petal.Length Petal.Width Species
          <dbl>       <dbl>        <dbl>       <dbl> <fct>  
 1          5.1         3.5          1.4         0.2 setosa 
 2          4.9         3            1.4         0.2 setosa 
 3          4.7         3.2          1.3         0.2 setosa 
 4          4.6         3.1          1.5         0.2 setosa 
 5          5           3.6          1.4         0.2 setosa 
 6          5.4         3.9          1.7         0.4 setosa 
 7          4.6         3.4          1.4         0.3 setosa 
 8          5           3.4          1.5         0.2 setosa 
 9          4.4         2.9          1.4         0.2 setosa 
10          4.9         3.1          1.5         0.1 setosa 
# ℹ 140 more rows
…
        cols = where(is.numeric),
        names_to = "measure",
        values_to = "mean"
    ) |> 
    arrange(
        desc(mean)
    ) |> 
    group_by(measure) |> 
    arrange(
        desc(mean),
        .by_group = TRUE
    ) |> 
    ungroup()

# A tibble: 30 × 2
   measure  mean
   <chr>   <dbl>
 1 Day      16  
 2 Day      16  
 3 Day      16  
 4 Day      15.5
 5 Day      15.5
 6 Month     9  
 7 Month     8  
 8 Month     7  
 9 Month     6  
10 Month     5  
# ℹ 20 more rows
…
Aqui ya esta creada la funcion para poder calcular la media, ahora probemoslo al grupo de datos de la calidad del aire

airquality |> 
    calc_numeric_mean(
        group = Month
    )

# A tibble: 30 × 2
   measure  mean
   <chr>   <dbl>
 1 Day      16  
 2 Day      16  
 3 Day      16  
 4 Day      15.5
 5 Day      15.5
 6 Month     9  
 7 Month     8  
 8 Month     7  
 9 Month     6  
10 Month     5  
# ℹ 20 more rows
…
